<define-tag pagetitle>DLA-3095-1 ruby-rack</define-tag>
<define-tag report_date>2022-09-04</define-tag>
<define-tag secrefs>CVE-2022-30122 CVE-2022-30123</define-tag>
<define-tag packages>ruby-rack</define-tag>
<define-tag isvulnerable>yes</define-tag>
<define-tag fixed>yes</define-tag>
<define-tag fixed-section>no</define-tag>

#use wml::debian::security

