<define-tag pagetitle>DLA-3252-1 cacti</define-tag>
<define-tag report_date>2022-12-31</define-tag>
<define-tag secrefs>CVE-2020-8813 CVE-2020-23226 CVE-2020-25706 CVE-2022-0730 CVE-2022-46169 Bug#951832 Bug#1008693 Bug#1025648</define-tag>
<define-tag packages>cacti</define-tag>
<define-tag isvulnerable>yes</define-tag>
<define-tag fixed>yes</define-tag>
<define-tag fixed-section>no</define-tag>

#use wml::debian::security

