<define-tag pagetitle>DLA-3191-1 python-django</define-tag>
<define-tag report_date>2022-11-17</define-tag>
<define-tag secrefs>CVE-2021-45452 CVE-2022-22818 CVE-2022-23833</define-tag>
<define-tag packages>python-django</define-tag>
<define-tag isvulnerable>yes</define-tag>
<define-tag fixed>yes</define-tag>
<define-tag fixed-section>no</define-tag>

#use wml::debian::security
