<define-tag pagetitle>DSA-4837-1 salt</define-tag>
<define-tag report_date>2021-1-24</define-tag>
<define-tag secrefs>CVE-2020-16846 CVE-2020-17490 CVE-2020-25592</define-tag>
<define-tag packages>salt</define-tag>
<define-tag isvulnerable>yes</define-tag>
<define-tag fixed>yes</define-tag>
<define-tag fixed-section>no</define-tag>

#use wml::debian::security



</dl>
