<define-tag pagetitle>DSA-4933-1 nettle</define-tag>
<define-tag report_date>2021-6-18</define-tag>
<define-tag secrefs>CVE-2021-3580 CVE-2021-20305 Bug#985652 Bug#989631</define-tag>
<define-tag packages>nettle</define-tag>
<define-tag isvulnerable>yes</define-tag>
<define-tag fixed>yes</define-tag>
<define-tag fixed-section>no</define-tag>

#use wml::debian::security



</dl>
