<define-tag pagetitle>DSA-4950-1 ansible</define-tag>
<define-tag report_date>2021-8-07</define-tag>
<define-tag secrefs>CVE-2019-10156 CVE-2019-10206 CVE-2019-14846 CVE-2019-14864 CVE-2019-14904 CVE-2020-1733  CVE-2020-1735  CVE-2020-1739 CVE-2020-1740  CVE-2020-1746  CVE-2020-1753  CVE-2020-10684 CVE-2020-10685 CVE-2020-10729 CVE-2020-14330 CVE-2020-14332 CVE-2020-14365 CVE-2021-20228</define-tag>
<define-tag packages>ansible</define-tag>
<define-tag isvulnerable>yes</define-tag>
<define-tag fixed>yes</define-tag>
<define-tag fixed-section>no</define-tag>

#use wml::debian::security



</dl>
