<define-tag pagetitle>DSA-4804-1 xen</define-tag>
<define-tag report_date>2020-12-04</define-tag>
<define-tag secrefs>CVE-2020-27670 CVE-2020-27671 CVE-2020-27672 CVE-2020-27674 CVE-2020-28368</define-tag>
<define-tag packages>xen</define-tag>
<define-tag isvulnerable>yes</define-tag>
<define-tag fixed>yes</define-tag>
<define-tag fixed-section>no</define-tag>

#use wml::debian::security



</dl>
