<define-tag pagetitle>DLA-2757-1 thunderbird</define-tag>
<define-tag report_date>2021-09-13</define-tag>
<define-tag secrefs>CVE-2021-38493</define-tag>
<define-tag packages>thunderbird</define-tag>
<define-tag isvulnerable>yes</define-tag>
<define-tag fixed>yes</define-tag>
<define-tag fixed-section>no</define-tag>

#use wml::debian::security

