<define-tag pagetitle>DLA-2822-1 netkit-rsh</define-tag>
<define-tag report_date>2021-11-18</define-tag>
<define-tag secrefs>CVE-2019-7282 CVE-2019-7283</define-tag>
<define-tag packages>netkit-rsh</define-tag>
<define-tag isvulnerable>yes</define-tag>
<define-tag fixed>yes</define-tag>
<define-tag fixed-section>no</define-tag>

#use wml::debian::security

