<define-tag pagetitle>DLA-2658-1 redmine</define-tag>
<define-tag report_date>2021-05-13</define-tag>
<define-tag secrefs>CVE-2019-25026 CVE-2020-36306 CVE-2020-36307 CVE-2020-36308 CVE-2021-30163 CVE-2021-30164 CVE-2021-31863 CVE-2021-31864 CVE-2021-31865 CVE-2021-31866</define-tag>
<define-tag packages>redmine</define-tag>
<define-tag isvulnerable>yes</define-tag>
<define-tag fixed>yes</define-tag>
<define-tag fixed-section>no</define-tag>

#use wml::debian::security

