<define-tag pagetitle>DSA-5416-1 connman</define-tag>
<define-tag report_date>2023-5-31</define-tag>
<define-tag secrefs>CVE-2023-28488 Bug#1034393</define-tag>
<define-tag packages>connman</define-tag>
<define-tag isvulnerable>yes</define-tag>
<define-tag fixed>yes</define-tag>
<define-tag fixed-section>no</define-tag>

#use wml::debian::security



</dl>
