<define-tag pagetitle>DSA-5448-1 linux</define-tag>
<define-tag report_date>2023-7-05</define-tag>
<define-tag secrefs>CVE-2023-2124 CVE-2023-2156 CVE-2023-2269 CVE-2023-3090 CVE-2023-3212 CVE-2023-3268 CVE-2023-3269 CVE-2023-3390 CVE-2023-31084 CVE-2023-32250 CVE-2023-32254 CVE-2023-35788</define-tag>
<define-tag packages>linux</define-tag>
<define-tag isvulnerable>yes</define-tag>
<define-tag fixed>yes</define-tag>
<define-tag fixed-section>no</define-tag>

#use wml::debian::security



</dl>
