<define-tag pagetitle>DLA-1010-1 vorbis-tools</define-tag>
<define-tag report_date>2017-7-3</define-tag>
<define-tag secrefs>CVE-2014-9638 CVE-2014-9639 CVE-2014-9640 CVE-2015-6749 Bug#797461 Bug#776086 Bug#771363</define-tag>
<define-tag packages>vorbis-tools</define-tag>
<define-tag isvulnerable>yes</define-tag>
<define-tag fixed>yes</define-tag>
<define-tag fixed-section>no</define-tag>

#use wml::debian::security

