<define-tag pagetitle>DLA-3446-1 linux-5.10</define-tag>
<define-tag report_date>2023-6-5</define-tag>
<define-tag secrefs>CVE-2023-0386 CVE-2023-31436 CVE-2023-32233 Bug#1035779</define-tag>
<define-tag packages>linux-5.10</define-tag>
<define-tag isvulnerable>yes</define-tag>
<define-tag fixed>yes</define-tag>
<define-tag fixed-section>no</define-tag>

#use wml::debian::security

