<define-tag pagetitle>DLA-3423-1 epiphany-browser</define-tag>
<define-tag report_date>2023-05-15</define-tag>
<define-tag secrefs>CVE-2023-26081</define-tag>
<define-tag packages>epiphany-browser</define-tag>
<define-tag isvulnerable>yes</define-tag>
<define-tag fixed>yes</define-tag>
<define-tag fixed-section>no</define-tag>

#use wml::debian::security
