<define-tag pagetitle>DLA-3471-1 c-ares</define-tag>
<define-tag report_date>2023-06-26</define-tag>
<define-tag secrefs>CVE-2023-31130 CVE-2023-32067</define-tag>
<define-tag packages>c-ares</define-tag>
<define-tag isvulnerable>yes</define-tag>
<define-tag fixed>yes</define-tag>
<define-tag fixed-section>no</define-tag>

#use wml::debian::security

