<define-tag pagetitle>DLA-3291-1 node-object-path</define-tag>
<define-tag report_date>2023-01-29</define-tag>
<define-tag secrefs>CVE-2021-3805 CVE-2021-23434</define-tag>
<define-tag packages>node-object-path</define-tag>
<define-tag isvulnerable>yes</define-tag>
<define-tag fixed>yes</define-tag>
<define-tag fixed-section>no</define-tag>

#use wml::debian::security

