<define-tag pagetitle>DLA-3407-1 jackson-databind</define-tag>
<define-tag report_date>2023-04-30</define-tag>
<define-tag secrefs>CVE-2020-10650</define-tag>
<define-tag packages>jackson-databind</define-tag>
<define-tag isvulnerable>yes</define-tag>
<define-tag fixed>yes</define-tag>
<define-tag fixed-section>no</define-tag>

#use wml::debian::security

