<define-tag pagetitle>DLA-3387-2 udisks2</define-tag>
<define-tag report_date>2023-04-10</define-tag>
<define-tag secrefs>Bug#1034124</define-tag>
<define-tag packages>udisks2</define-tag>
<define-tag isvulnerable>yes</define-tag>
<define-tag fixed>yes</define-tag>
<define-tag fixed-section>no</define-tag>

#use wml::debian::security

