<define-tag pagetitle>DLA-3434-1 sysstat</define-tag>
<define-tag report_date>2023-05-27</define-tag>
<define-tag secrefs>CVE-2023-33204 Bug#1036294</define-tag>
<define-tag packages>sysstat</define-tag>
<define-tag isvulnerable>yes</define-tag>
<define-tag fixed>yes</define-tag>
<define-tag fixed-section>no</define-tag>

#use wml::debian::security

