<define-tag pagetitle>DLA-2064-1 ldm</define-tag>
<define-tag report_date>2020-01-10</define-tag>
<define-tag secrefs>CVE-2019-20373</define-tag>
<define-tag packages>ldm</define-tag>
<define-tag isvulnerable>yes</define-tag>
<define-tag fixed>yes</define-tag>
<define-tag fixed-section>no</define-tag>

#use wml::debian::security
