<define-tag pagetitle>DLA-2272-1 </define-tag>
<define-tag report_date>2020-07-07</define-tag>
<define-tag packages></define-tag>
<define-tag isvulnerable>yes</define-tag>
<define-tag fixed>yes</define-tag>
<define-tag fixed-section>no</define-tag>

#use wml::debian::security

