<define-tag pagetitle>DLA-2320-1 golang-github-seccomp-libseccomp-golang</define-tag>
<define-tag report_date>2020-08-10</define-tag>
<define-tag secrefs>CVE-2017-18367</define-tag>
<define-tag packages>golang-github-seccomp-libseccomp-golang</define-tag>
<define-tag isvulnerable>yes</define-tag>
<define-tag fixed>yes</define-tag>
<define-tag fixed-section>no</define-tag>

#use wml::debian::security

