<define-tag pagetitle>DLA-1508-1 suricata</define-tag>
<define-tag report_date>2018-9-19</define-tag>
<define-tag secrefs>CVE-2016-10728</define-tag>
<define-tag packages>suricata</define-tag>
<define-tag isvulnerable>yes</define-tag>
<define-tag fixed>yes</define-tag>
<define-tag fixed-section>no</define-tag>

#use wml::debian::security

