<define-tag pagetitle>DSA-4595-1 debian-lan-config</define-tag>
<define-tag report_date>2019-12-27</define-tag>
<define-tag secrefs>CVE-2019-3467 Bug#947459</define-tag>
<define-tag packages>debian-lan-config</define-tag>
<define-tag isvulnerable>yes</define-tag>
<define-tag fixed>yes</define-tag>
<define-tag fixed-section>no</define-tag>

#use wml::debian::security



</dl>
