<define-tag pagetitle>DSA-5307-1 libcommons-net-java</define-tag>
<define-tag report_date>2022-12-29</define-tag>
<define-tag secrefs>CVE-2021-37533 Bug#1025910</define-tag>
<define-tag packages>libcommons-net-java</define-tag>
<define-tag isvulnerable>yes</define-tag>
<define-tag fixed>yes</define-tag>
<define-tag fixed-section>no</define-tag>

#use wml::debian::security



</dl>
