<define-tag pagetitle>DSA-5168-1 chromium</define-tag>
<define-tag report_date>2022-6-22</define-tag>
<define-tag secrefs>CVE-2022-2156 CVE-2022-2157 CVE-2022-2158 CVE-2022-2160 CVE-2022-2161 CVE-2022-2162 CVE-2022-2163 CVE-2022-2164 CVE-2022-2165</define-tag>
<define-tag packages>chromium</define-tag>
<define-tag isvulnerable>yes</define-tag>
<define-tag fixed>yes</define-tag>
<define-tag fixed-section>no</define-tag>

#use wml::debian::security



</dl>
