<define-tag pagetitle>DSA-5142-1 libxml2</define-tag>
<define-tag report_date>2022-5-22</define-tag>
<define-tag secrefs>CVE-2022-29824 Bug#1010526</define-tag>
<define-tag packages>libxml2</define-tag>
<define-tag isvulnerable>yes</define-tag>
<define-tag fixed>yes</define-tag>
<define-tag fixed-section>no</define-tag>

#use wml::debian::security



</dl>
