<define-tag pagetitle>DSA-5244-1 chromium</define-tag>
<define-tag report_date>2022-9-28</define-tag>
<define-tag secrefs>CVE-2022-3201 CVE-2022-3304 CVE-2022-3305 CVE-2022-3306 CVE-2022-3307 CVE-2022-3308 CVE-2022-3309 CVE-2022-3310 CVE-2022-3311 CVE-2022-3312 CVE-2022-3313 CVE-2022-3314 CVE-2022-3315 CVE-2022-3316 CVE-2022-3317 CVE-2022-3318</define-tag>
<define-tag packages>chromium</define-tag>
<define-tag isvulnerable>yes</define-tag>
<define-tag fixed>yes</define-tag>
<define-tag fixed-section>no</define-tag>

#use wml::debian::security



</dl>
