<define-tag pagetitle>DLA-2038-2 x2goclient</define-tag>
<define-tag report_date>2019-12-23</define-tag>
<define-tag secrefs>Bug#947129</define-tag>
<define-tag packages>x2goclient</define-tag>
<define-tag isvulnerable>yes</define-tag>
<define-tag fixed>yes</define-tag>
<define-tag fixed-section>no</define-tag>

#use wml::debian::security

