<define-tag pagetitle>DLA-453-1 extplorer</define-tag>
<define-tag report_date>2016-5-3</define-tag>
<define-tag secrefs>CVE-2015-0896 Bug#783231</define-tag>
<define-tag packages>extplorer</define-tag>
<define-tag isvulnerable>yes</define-tag>
<define-tag fixed>yes</define-tag>
<define-tag fixed-section>no</define-tag>

#use wml::debian::security

